…
# Busca por uma string

> cid_busca("TuBerC")

# A tibble: 61 x 12
   cid   classif restrsexo causaobito descricao    descrabrev  refer excluidos cid_ord indice cap   capitulo
   <chr> <chr>   <chr>     <chr>      <chr>        <chr>       <chr> <chr>     <ord>    <int> <fct>    <dbl>
 1 A150  NA      NA        NA         Tuberculose… A15.0 Tube… NA    NA        A150        60 1            1
 2 A151  NA      NA        NA         Tuberculose… A15.1 Tube… NA    NA        A151        61 1            1
 3 A152  NA      NA        NA         Tuberculose… A15.2 Tube… NA    NA        A152        62 1            1
 4 A153  NA      NA        NA         Tuberculose… A15.3 Tube… NA    NA        A153        63 1            1
 5 A154  NA      NA        NA         Tuberculose… A15.4 Tube… NA    NA        A154        64 1            1
 6 A155  NA      NA        NA         Tuberculose… A15.5 Tube… NA    NA        A155        65 1            1
 7 A156  NA      NA        NA         Pleuris tub… A15.6 Pleu… NA    NA        A156        66 1            1
 8 A157  NA      NA        NA         Tuberculose… A15.7 Tube… NA    NA        A157        67 1            1
 9 A158  NA      NA        NA         Outras form… A15.8 Outr… NA    NA        A158        68 1            1
10 A159  NA      NA        NA         Tuberculose… A15.9 Tube… NA    NA        A159        69 1            1
# … with 51 more rows
…
